Week 6
…
my_batting <- 
  Batting[, c("playerID", "teamID", "G", "AB", "R", "H", "X2B", "X3B", "HR")] |>
  as_tibble()
my_batting

# A tibble: 112,184 × 9
   playerID  teamID     G    AB     R     H   X2B   X3B    HR
   <chr>     <fct>  <int> <int> <int> <int> <int> <int> <int>
 1 abercda01 TRO        1     4     0     0     0     0     0
 2 addybo01  RC1       25   118    30    32     6     0     0
 3 allisar01 CL1       29   137    28    40     4     5     0
 4 allisdo01 WS3       27   133    28    44    10     2     2
 5 ansonca01 RC1       25   120    29    39    11     3     0
 6 armstbo01 FW1       12    49     9    11     2     1     0
 7 barkeal01 RC1        1     4     0     1     0     0     0
 8 barnero01 BS1       31   157    66    63    10     9     0
 9 barrebi01 FW1        1     5     1     1     1     0     0
10 barrofr01 BS1       18    86    13    13     2     1     0
# ℹ 112,174 more rows

library(Lahman)
library(tidyverse)
my_batting <- 
  Batting |>
  select (playerID, teamID, G, AB, R, H, X2B, X3B, HR) |>
  as_tibble()
my_batting

# A tibble: 112,184 × 9
   playerID  teamID     G    AB     R     H   X2B   X3B    HR
   <chr>     <fct>  <int> <int> <int> <int> <int> <int> <int>
 1 abercda01 TRO        1     4     0     0     0     0     0
 2 addybo01  RC1       25   118    30    32     6     0     0
 3 allisar01 CL1       29   137    28    40     4     5     0
 4 allisdo01 WS3       27   133    28    44    10     2     2
 5 ansonca01 RC1       25   120    29    39    11     3     0
 6 armstbo01 FW1       12    49     9    11     2     1     0
 7 barkeal01 RC1        1     4     0     1     0     0     0
 8 barnero01 BS1       31   157    66    63    10     9     0
 9 barrebi01 FW1        1     5     1     1     1     0     0
10 barrofr01 BS1       18    86    13    13     2     1     0
# ℹ 112,174 more rows
…
\(x) = function(x), so \(x0) mean(x) = function(x) mean(x)

for example, result <- map(my_list, \(x) mean(x, trim = 0.1))

List columns

used to add a list to a list, ie iris has 150 observations, can add a column of additional data of 150 observations

iris |>
 as_tibble() |>
 mutate(diffs = pmap(list(Sepal.Length, Sepal.Width, Petal.Length, Petal.Width),
 \(x, y, z, w) list(x-y, x-z, x-w))) |>
 select(diffs, everything())

# A tibble: 150 × 6
   diffs      Sepal.Length Sepal.Width Petal.Length Petal.Width Species
   <list>            <dbl>       <dbl>        <dbl>       <dbl> <fct>  
 1 <list [3]>          5.1         3.5          1.4         0.2 setosa 
 2 <list [3]>          4.9         3            1.4         0.2 setosa 
 3 <list [3]>          4.7         3.2          1.3         0.2 setosa 
 4 <list [3]>          4.6         3.1          1.5         0.2 setosa 
 5 <list [3]>          5           3.6          1.4         0.2 setosa 
 6 <list [3]>          5.4         3.9          1.7         0.4 setosa 
 7 <list [3]>          4.6         3.4          1.4         0.3 setosa 
 8 <list [3]>          5           3.4          1.5         0.2 setosa 
 9 <list [3]>          4.4         2.9          1.4         0.2 setosa 
10 <list [3]>          4.9         3.1          1.5         0.1 setosa 
# ℹ 140 more rows
…
$total
[1] 61

team_info <- as_tibble(parsed$data)
team_info

# A tibble: 61 × 6
      id franchiseId fullName               leagueId rawTricode triCode
   <int>       <int> <chr>                     <int> <chr>      <chr>  
 1    11          35 Atlanta Thrashers           133 ATL        ATL    
 2    34          26 Hartford Whalers            133 HFD        HFD    
 3    31          15 Minnesota North Stars       133 MNS        MNS    
 4    32          27 Quebec Nordiques            133 QUE        QUE    
 5    33          28 Winnipeg Jets (1979)        133 WIN        WIN    
 6    35          23 Colorado Rockies            133 CLR        CLR    
 7    36           3 Ottawa Senators (1917)      133 SEN        SEN    
 8    37           4 Hamilton Tigers             133 HAM        HAM    
 9    38           9 Pittsburgh Pirates          133 PIR        PIR    
10    39           9 Philadelphia Quakers        133 QUA        QUA    
# ℹ 51 more rows

another example

URL_team_stats <-
"https://api.nhle.com/stats/rest/en/team/summary?sort=wins&cayenneExp=seasonId=20232024%20and%20gameTypeId=2"
team_stats_return <- httr::GET(URL_team_stats)
parsed_team_stats <- fromJSON(rawToChar(team_stats_return$content))
team_stats <- as_tibble(parsed_team_stats$data)
team_stats |>
 select(teamId, teamFullName, everything())

# A tibble: 32 × 24
   teamId teamFullName          faceoffWinPct gamesPlayed goalsAgainst
    <int> <chr>                         <dbl>       <int>        <int>
 1     28 San Jose Sharks               0.490          82          326
 2     16 Chicago Blackhawks            0.463          82          289
 3     29 Columbus Blue Jackets         0.472          82          298
 4     24 Anaheim Ducks                 0.466          82          293
 5      8 Montréal Canadiens            0.515          82          281
 6     55 Seattle Kraken                0.475          82          232
 7     53 Arizona Coyotes               0.451          82          274
 8      9 Ottawa Senators               0.510          82          281
 9     20 Calgary Flames                0.496          82          267
10      1 New Jersey Devils             0.535          82          281
# ℹ 22 more rows
# ℹ 19 more variables: goalsAgainstPerGame <dbl>, goalsFor <int>,
#   goalsForPerGame <dbl>, losses <int>, otLosses <int>,
#   penaltyKillNetPct <dbl>, penaltyKillPct <dbl>, pointPct <dbl>,
#   points <int>, powerPlayNetPct <dbl>, powerPlayPct <dbl>,
#   regulationAndOtWins <int>, seasonId <int>, shotsAgainstPerGame <dbl>,
#   shotsForPerGame <dbl>, ties <lgl>, wins <int>, winsInRegulation <int>, …
